[gd_scene load_steps=4 format=2]

[ext_resource path="res://TileBlocks.tres" type="TileSet" id=1]
[ext_resource path="res://Level.gd" type="Script" id=3]
[ext_resource path="res://TextSign.tscn" type="PackedScene" id=4]

[node name="Level" type="Node2D"]
script = ExtResource( 3 )

[node name="TileMap" type="TileMap" parent="."]
tile_set = ExtResource( 1 )
cell_size = Vector2( 8, 8 )
format = 1
tile_data = PoolIntArray( -983040, 0, 0, -983039, 0, 0, -983038, 0, 0, -983037, 0, 0, -983036, 0, 0, -983035, 0, 0, -983034, 0, 0, -983033, 0, 0, -983032, 0, 0, -983031, 0, 0, -983030, 0, 0, -983029, 0, 0, -983028, 0, 0, -983027, 0, 0, -983026, 0, 0, -983025, 0, 0, -983024, 0, 0, -983023, 0, 0, -983022, 0, 0, -983021, 0, 0, -983020, 0, 0, -983019, 0, 0, -983018, 0, 0, -983017, 0, 0, -983016, 0, 0, -983015, 0, 0, -983014, 0, 0, -983013, 0, 0, -983012, 0, 0, -983011, 0, 0, -983010, 0, 0, -983009, 0, 0, -983008, 0, 0, -983007, 0, 0, -983006, 0, 0, -983005, 0, 0, -983004, 0, 0, -983003, 0, 0, -983002, 0, 0, -983001, 0, 0, -917504, 0, 0, -917485, 0, 0, -917484, 0, 0, -917465, 0, 0, -851968, 0, 0, -851949, 0, 0, -851948, 0, 0, -851929, 0, 0, -786432, 0, 0, -786413, 0, 0, -786412, 0, 0, -786393, 0, 0, -720896, 0, 0, -720877, 0, 0, -720876, 0, 0, -720857, 0, 0, -655360, 0, 0, -655341, 0, 0, -655340, 0, 0, -655321, 0, 0, -589824, 0, 0, -589805, 0, 0, -589804, 0, 0, -589785, 0, 0, -524288, 0, 0, -524269, 0, 0, -524268, 0, 0, -524249, 0, 0, -458752, 0, 0, -458733, 0, 0, -458732, 0, 0, -458713, 0, 0, -393216, 0, 0, -393197, 0, 0, -393196, 0, 0, -393177, 0, 0, -327680, 0, 0, -327661, 0, 0, -327660, 0, 0, -327641, 0, 0, -262144, 0, 0, -262125, 0, 0, -262124, 0, 0, -262105, 0, 0, -196608, 0, 0, -196569, 0, 0, -131072, 0, 0, -131033, 0, 0, -65536, 0, 0, -65535, 0, 0, -65534, 0, 0, -65533, 0, 0, -65532, 0, 0, -65531, 0, 0, -65530, 0, 0, -65529, 0, 0, -65528, 0, 0, -65527, 0, 0, -65526, 0, 0, -65525, 0, 0, -65524, 0, 0, -65523, 0, 0, -65522, 0, 0, -65521, 0, 0, -65520, 0, 0, -65517, 0, 0, -65516, 0, 0, -65515, 0, 0, -65514, 0, 0, -65513, 0, 0, -65512, 0, 0, -65511, 0, 0, -65510, 0, 0, -65509, 0, 0, -65508, 0, 0, -65507, 0, 0, -65506, 0, 0, -65505, 0, 0, -65504, 0, 0, -65503, 0, 0, -65502, 0, 0, -65498, 0, 0, -65497, 0, 0, 0, 0, 0, 1, 0, 0, 2, 0, 0, 3, 0, 0, 4, 0, 0, 5, 0, 0, 6, 0, 0, 7, 0, 0, 8, 0, 0, 9, 0, 0, 10, 0, 0, 11, 0, 0, 12, 0, 0, 13, 0, 0, 14, 0, 0, 15, 0, 0, 16, 0, 0, 19, 0, 0, 20, 0, 0, 21, 0, 0, 22, 0, 0, 23, 0, 0, 24, 0, 0, 25, 0, 0, 26, 0, 0, 27, 0, 0, 28, 0, 0, 29, 0, 0, 30, 0, 0, 31, 0, 0, 32, 0, 0, 33, 0, 0, 34, 0, 0, 39, 0, 0, 65536, 0, 0, 65555, 0, 0, 65556, 0, 0, 65573, 0, 0, 65575, 0, 0, 131072, 0, 0, 131091, 0, 0, 131092, 0, 0, 131111, 0, 0, 196608, 0, 0, 196609, 0, 0, 196610, 0, 0, 196611, 0, 0, 196612, 0, 0, 196613, 0, 0, 196614, 0, 0, 196615, 0, 0, 196616, 0, 0, 196617, 0, 0, 196618, 0, 0, 196619, 0, 0, 196620, 0, 0, 196621, 0, 0, 196622, 0, 0, 196623, 0, 0, 196624, 0, 0, 196625, 0, 0, 196626, 0, 0, 196627, 0, 0, 196628, 0, 0, 196644, 0, 0, 196647, 0, 0, 262144, 0, 0, 262156, 0, 0, 262163, 0, 0, 262164, 0, 0, 262183, 0, 0, 327680, 0, 0, 327692, 0, 0, 327699, 0, 0, 327700, 0, 0, 327715, 0, 0, 327719, 0, 0, 393216, 0, 0, 393221, 0, 0, 393222, 0, 0, 393223, 0, 0, 393224, 0, 0, 393225, 0, 0, 393226, 0, 0, 393227, 0, 0, 393228, 0, 0, 393229, 0, 0, 393230, 0, 0, 393231, 0, 0, 393232, 0, 0, 393233, 0, 0, 393234, 0, 0, 393235, 0, 0, 393236, 0, 0, 393255, 0, 0, 458752, 0, 0, 458771, 0, 0, 458772, 0, 0, 458786, 0, 0, 458791, 0, 0, 524288, 0, 0, 524307, 0, 0, 524308, 0, 0, 524319, 0, 0, 524322, 0, 0, 524327, 0, 0, 589824, 0, 0, 589836, 0, 0, 589852, 0, 0, 589855, 0, 0, 589858, 0, 0, 589859, 0, 0, 589863, 0, 0, 655360, 0, 0, 655372, 0, 0, 655385, 0, 0, 655388, 0, 0, 655391, 0, 0, 655392, 0, 0, 655394, 0, 0, 655395, 0, 0, 655399, 0, 0, 720896, 0, 0, 720897, 0, 0, 720898, 0, 0, 720899, 0, 0, 720900, 0, 0, 720901, 0, 0, 720902, 0, 0, 720903, 0, 0, 720904, 0, 0, 720905, 0, 0, 720906, 0, 0, 720907, 0, 0, 720908, 0, 0, 720909, 0, 0, 720910, 0, 0, 720911, 0, 0, 720912, 0, 0, 720913, 0, 0, 720914, 0, 0, 720915, 0, 0, 720916, 0, 0, 720917, 0, 0, 720918, 0, 0, 720919, 0, 0, 720920, 0, 0, 720921, 0, 0, 720922, 0, 0, 720923, 0, 0, 720924, 0, 0, 720925, 0, 0, 720926, 0, 0, 720927, 0, 0, 720928, 0, 0, 720929, 0, 0, 720930, 0, 0, 720931, 0, 0, 720932, 0, 0, 720933, 0, 0, 720934, 0, 0, 720935, 0, 0, 786432, 0, 0, 786437, 0, 0, 786440, 0, 0, 786452, 0, 0, 786471, 0, 0, 851968, 0, 0, 851973, 0, 0, 851976, 0, 0, 851988, 0, 0, 852007, 0, 0, 917504, 0, 0, 917505, 0, 0, 917506, 0, 0, 917507, 0, 0, 917508, 0, 0, 917509, 0, 0, 917510, 0, 0, 917511, 0, 0, 917512, 0, 0, 917513, 0, 0, 917514, 0, 0, 917515, 0, 0, 917516, 0, 0, 917517, 0, 0, 917518, 0, 0, 917519, 0, 0, 917520, 0, 0, 917521, 0, 0, 917522, 0, 0, 917523, 0, 0, 917524, 0, 0, 917525, 0, 0, 917526, 0, 0, 917527, 0, 0, 917528, 0, 0, 917529, 0, 0, 917530, 0, 0, 917531, 0, 0, 917532, 0, 0, 917533, 0, 0, 917534, 0, 0, 917535, 0, 0, 917536, 0, 0, 917537, 0, 0, 917538, 0, 0, 917539, 0, 0, 917540, 0, 0, 917541, 0, 0, 917542, 0, 0, 917543, 0, 0 )

[node name="Camera2D" type="Camera2D" parent="."]
anchor_mode = 0
current = true

[node name="TextSign" parent="." instance=ExtResource( 4 )]
position = Vector2( 70, 84 )
