[gd_scene load_steps=7 format=2]

[ext_resource path="res://LevelLoader.gd" type="Script" id=1]
[ext_resource path="res://Entities/Player.tscn" type="PackedScene" id=2]
[ext_resource path="res://Tools/Dialog.tscn" type="PackedScene" id=3]
[ext_resource path="res://Sectors/Stage 2/tools/player_inventory.tscn" type="PackedScene" id=4]

[sub_resource type="Animation" id=1]
resource_name = "RoomTransitionFinish"
length = 0.25
step = 0.05
tracks/0/type = "value"
tracks/0/path = NodePath("CanvasLayer/ColorRect:modulate")
tracks/0/interp = 1
tracks/0/loop_wrap = true
tracks/0/imported = false
tracks/0/enabled = true
tracks/0/keys = {
"times": PoolRealArray( 0, 0.25 ),
"transitions": PoolRealArray( 1, 1 ),
"update": 0,
"values": [ Color( 1, 1, 1, 1 ), Color( 1, 1, 1, 0 ) ]
}

[sub_resource type="Animation" id=2]
length = 0.25
step = 0.05
tracks/0/type = "value"
tracks/0/path = NodePath("CanvasLayer/ColorRect:modulate")
tracks/0/interp = 1
tracks/0/loop_wrap = true
tracks/0/imported = false
tracks/0/enabled = true
tracks/0/keys = {
"times": PoolRealArray( 0, 0.25 ),
"transitions": PoolRealArray( 1, 1 ),
"update": 0,
"values": [ Color( 1, 1, 1, 0 ), Color( 1, 1, 1, 1 ) ]
}

[node name="LevelLoader" type="Node2D"]
pause_mode = 2
script = ExtResource( 1 )

[node name="CanvasLayer" type="CanvasLayer" parent="."]

[node name="ColorRect" type="ColorRect" parent="CanvasLayer"]
modulate = Color( 1, 1, 1, 0 )
margin_right = 160.0
margin_bottom = 120.0
color = Color( 0, 0, 0, 1 )
__meta__ = {
"_edit_use_anchors_": false
}

[node name="player_inventory" parent="CanvasLayer" instance=ExtResource( 4 )]
position = Vector2( 10, 12 )

[node name="Camera2D" type="Camera2D" parent="."]
anchor_mode = 0
current = true

[node name="Player" parent="." instance=ExtResource( 2 )]

[node name="Dialog" parent="." instance=ExtResource( 3 )]
visible = false

[node name="AnimationPlayer" type="AnimationPlayer" parent="."]
anims/RoomTransitionFinish = SubResource( 1 )
anims/RoomTransitionStart = SubResource( 2 )
