[gd_scene load_steps=5 format=2]

[ext_resource path="res://bitfont.tres" type="DynamicFont" id=1]
[ext_resource path="res://TileBlocks.tres" type="TileSet" id=2]
[ext_resource path="res://spaceman.png" type="Texture" id=3]
[ext_resource path="res://MainTitle.gd" type="Script" id=4]

[node name="MainTitle" type="Node2D"]
pause_mode = 2
script = ExtResource( 4 )

[node name="Label" type="Label" parent="."]
margin_left = -0.397301
margin_top = 48.2189
margin_right = 159.603
margin_bottom = 80.2189
custom_fonts/font = ExtResource( 1 )
text = "Press x to Start"
align = 1
valign = 1
autowrap = true
__meta__ = {
"_edit_use_anchors_": false
}

[node name="TileMap" type="TileMap" parent="."]
tile_set = ExtResource( 2 )
cell_size = Vector2( 8, 8 )
format = 1
tile_data = PoolIntArray( 0, 0, 0, 1, 0, 0, 2, 0, 0, 3, 0, 0, 4, 0, 0, 5, 0, 0, 6, 0, 0, 7, 0, 0, 8, 0, 0, 9, 0, 0, 10, 0, 0, 11, 0, 0, 12, 0, 0, 13, 0, 0, 14, 0, 0, 15, 0, 0, 16, 0, 0, 17, 0, 0, 18, 0, 0, 19, 0, 0, 65536, 0, 0, 65555, 0, 0, 131072, 0, 0, 131091, 0, 0, 196608, 0, 0, 196609, 0, 0, 196610, 0, 0, 196611, 0, 0, 196612, 0, 0, 196613, 0, 0, 196614, 0, 0, 196615, 0, 0, 196616, 0, 0, 196617, 0, 0, 196620, 0, 0, 196621, 0, 0, 196622, 0, 0, 196623, 0, 0, 196624, 0, 0, 196625, 0, 0, 196626, 0, 0, 196627, 0, 0, 262144, 0, 0, 262163, 0, 0, 327680, 0, 0, 327699, 0, 0, 393216, 0, 0, 393221, 0, 0, 393222, 0, 0, 393223, 0, 0, 393224, 0, 0, 393225, 0, 0, 393226, 0, 0, 393227, 0, 0, 393228, 0, 0, 393229, 0, 0, 393230, 0, 0, 393231, 0, 0, 393232, 0, 0, 393233, 0, 0, 393234, 0, 0, 393235, 0, 0, 458752, 0, 0, 458771, 0, 0, 524288, 0, 0, 524307, 0, 0, 589824, 0, 0, 589836, 0, 0, 589843, 0, 0, 655360, 0, 0, 655372, 0, 0, 655379, 0, 0, 720896, 0, 0, 720897, 0, 0, 720898, 0, 0, 720899, 0, 0, 720900, 0, 0, 720901, 0, 0, 720902, 0, 0, 720903, 0, 0, 720904, 0, 0, 720905, 0, 0, 720906, 0, 0, 720907, 0, 0, 720908, 0, 0, 720909, 0, 0, 720910, 0, 0, 720911, 0, 0, 720912, 0, 0, 720913, 0, 0, 720914, 0, 0, 720915, 0, 0, 786432, 0, 0, 786437, 0, 0, 786440, 0, 0, 786451, 0, 0, 851968, 0, 0, 851973, 0, 0, 851976, 0, 0, 851987, 0, 0, 917504, 0, 0, 917505, 0, 0, 917506, 0, 0, 917507, 0, 0, 917508, 0, 0, 917509, 0, 0, 917510, 0, 0, 917511, 0, 0, 917512, 0, 0, 917513, 0, 0, 917514, 0, 0, 917515, 0, 0, 917516, 0, 0, 917517, 0, 0, 917518, 0, 0, 917519, 0, 0, 917520, 0, 0, 917521, 0, 0, 917522, 0, 0, 917523, 0, 0 )

[node name="Sprite" type="Sprite" parent="."]
position = Vector2( 80, 40 )
texture = ExtResource( 3 )
centered = false
flip_h = true
hframes = 4
vframes = 3
