[gd_scene load_steps=5 format=2]

[ext_resource path="res://game_tiles.png" type="Texture" id=1]
[ext_resource path="res://TextSign.gd" type="Script" id=2]
[ext_resource path="res://ActionHint.tscn" type="PackedScene" id=4]

[sub_resource type="RectangleShape2D" id=1]
extents = Vector2( 3, 3 )

[node name="TextSign" type="Node2D"]
script = ExtResource( 2 )

[node name="Sprite" type="Sprite" parent="."]
texture = ExtResource( 1 )
centered = false
hframes = 8
frame = 4

[node name="Area2DAction" type="Area2D" parent="."]
position = Vector2( 4, 4 )
collision_layer = 4
collision_mask = 4

[node name="CollisionShape2D" type="CollisionShape2D" parent="Area2DAction"]
shape = SubResource( 1 )

[node name="ActionHint" parent="." instance=ExtResource( 4 )]
visible = false
position = Vector2( -2, -14 )

[connection signal="area_entered" from="Area2DAction" to="." method="_on_Area2DAction_area_entered"]
[connection signal="area_exited" from="Area2DAction" to="." method="_on_Area2DAction_area_exited"]
[connection signal="body_entered" from="Area2DAction" to="." method="_on_Area2DAction_body_entered"]
[connection signal="body_exited" from="Area2DAction" to="." method="_on_Area2DAction_body_exited"]
[connection signal="action" from="ActionHint" to="." method="_on_ActionHint_action"]
