[gd_scene load_steps=30 format=2]

[ext_resource path="res://Graphics/slopes.png" type="Texture" id=1]
[ext_resource path="res://Graphics/wall.png" type="Texture" id=2]
[ext_resource path="res://Sectors/Stage 2/tools/dual_door.tscn" type="PackedScene" id=3]
[ext_resource path="res://Graphics/tileset_dark.png" type="Texture" id=4]
[ext_resource path="res://Sectors/Stage 2/level.gd" type="Script" id=5]
[ext_resource path="res://Sectors/Stage 2/tools/fixed_camera_zone.tscn" type="PackedScene" id=6]
[ext_resource path="res://Graphics/tileset_light.png" type="Texture" id=7]
[ext_resource path="res://Sectors/Stage 2/tools/follow_camera_zone.tscn" type="PackedScene" id=8]
[ext_resource path="res://Sectors/Stage 2/entities/tilemap_destroyable.tscn" type="PackedScene" id=9]
[ext_resource path="res://Sectors/Stage 2/tools/door_animated.tscn" type="PackedScene" id=10]
[ext_resource path="res://Sectors/Stage 2/tools/linked_door.tscn" type="PackedScene" id=11]
[ext_resource path="res://Sectors/Stage 2/items/item_pickaxe.tscn" type="PackedScene" id=12]
[ext_resource path="res://Graphics/half_tile.png" type="Texture" id=13]
[ext_resource path="res://Sectors/Stage 2/tools/action_switch.tscn" type="PackedScene" id=14]
[ext_resource path="res://Sectors/Stage 2/tools/text_sign.tscn" type="PackedScene" id=15]

[sub_resource type="TileSet" id=1]
1/name = "tileset_dark.png 1"
1/texture = ExtResource( 4 )
1/tex_offset = Vector2( 0, 0 )
1/modulate = Color( 1, 1, 1, 1 )
1/region = Rect2( 8, 0, 8, 8 )
1/tile_mode = 0
1/occluder_offset = Vector2( 0, 0 )
1/navigation_offset = Vector2( 0, 0 )
1/shape_offset = Vector2( 0, 0 )
1/shape_transform = Transform2D( 1, 0, 0, 1, 0, 0 )
1/shape_one_way = false
1/shape_one_way_margin = 0.0
1/shapes = [  ]
1/z_index = 0
2/name = "tileset_dark.png 2"
2/texture = ExtResource( 4 )
2/tex_offset = Vector2( 0, 0 )
2/modulate = Color( 1, 1, 1, 1 )
2/region = Rect2( 16, 0, 8, 8 )
2/tile_mode = 0
2/occluder_offset = Vector2( 0, 0 )
2/navigation_offset = Vector2( 0, 0 )
2/shape_offset = Vector2( 0, 0 )
2/shape_transform = Transform2D( 1, 0, 0, 1, 0, 0 )
2/shape_one_way = false
2/shape_one_way_margin = 0.0
2/shapes = [  ]
2/z_index = 0
3/name = "tileset_dark.png 3"
3/texture = ExtResource( 4 )
3/tex_offset = Vector2( 0, 0 )
3/modulate = Color( 1, 1, 1, 1 )
3/region = Rect2( 24, 0, 8, 8 )
3/tile_mode = 0
3/occluder_offset = Vector2( 0, 0 )
3/navigation_offset = Vector2( 0, 0 )
3/shape_offset = Vector2( 0, 0 )
3/shape_transform = Transform2D( 1, 0, 0, 1, 0, 0 )
3/shape_one_way = false
3/shape_one_way_margin = 0.0
3/shapes = [  ]
3/z_index = 0
4/name = "tileset_dark.png 4"
4/texture = ExtResource( 4 )
4/tex_offset = Vector2( 0, 0 )
4/modulate = Color( 1, 1, 1, 1 )
4/region = Rect2( 32, 0, 8, 8 )
4/tile_mode = 0
4/occluder_offset = Vector2( 0, 0 )
4/navigation_offset = Vector2( 0, 0 )
4/shape_offset = Vector2( 0, 0 )
4/shape_transform = Transform2D( 1, 0, 0, 1, 0, 0 )
4/shape_one_way = false
4/shape_one_way_margin = 0.0
4/shapes = [  ]
4/z_index = 0
5/name = "tileset_dark.png 5"
5/texture = ExtResource( 4 )
5/tex_offset = Vector2( 0, 0 )
5/modulate = Color( 1, 1, 1, 1 )
5/region = Rect2( 40, 0, 8, 8 )
5/tile_mode = 0
5/occluder_offset = Vector2( 0, 0 )
5/navigation_offset = Vector2( 0, 0 )
5/shape_offset = Vector2( 0, 0 )
5/shape_transform = Transform2D( 1, 0, 0, 1, 0, 0 )
5/shape_one_way = false
5/shape_one_way_margin = 0.0
5/shapes = [  ]
5/z_index = 0
6/name = "tileset_dark.png 6"
6/texture = ExtResource( 4 )
6/tex_offset = Vector2( 0, 0 )
6/modulate = Color( 1, 1, 1, 1 )
6/region = Rect2( 48, 0, 8, 8 )
6/tile_mode = 0
6/occluder_offset = Vector2( 0, 0 )
6/navigation_offset = Vector2( 0, 0 )
6/shape_offset = Vector2( 0, 0 )
6/shape_transform = Transform2D( 1, 0, 0, 1, 0, 0 )
6/shape_one_way = false
6/shape_one_way_margin = 0.0
6/shapes = [  ]
6/z_index = 0
7/name = "tileset_dark.png 7"
7/texture = ExtResource( 4 )
7/tex_offset = Vector2( 0, 0 )
7/modulate = Color( 1, 1, 1, 1 )
7/region = Rect2( 56, 0, 8, 8 )
7/tile_mode = 0
7/occluder_offset = Vector2( 0, 0 )
7/navigation_offset = Vector2( 0, 0 )
7/shape_offset = Vector2( 0, 0 )
7/shape_transform = Transform2D( 1, 0, 0, 1, 0, 0 )
7/shape_one_way = false
7/shape_one_way_margin = 0.0
7/shapes = [  ]
7/z_index = 0
8/name = "tileset_dark.png 8"
8/texture = ExtResource( 4 )
8/tex_offset = Vector2( 0, 0 )
8/modulate = Color( 1, 1, 1, 1 )
8/region = Rect2( 64, 0, 8, 8 )
8/tile_mode = 0
8/occluder_offset = Vector2( 0, 0 )
8/navigation_offset = Vector2( 0, 0 )
8/shape_offset = Vector2( 0, 0 )
8/shape_transform = Transform2D( 1, 0, 0, 1, 0, 0 )
8/shape_one_way = false
8/shape_one_way_margin = 0.0
8/shapes = [  ]
8/z_index = 0
9/name = "tileset_dark.png 9"
9/texture = ExtResource( 4 )
9/tex_offset = Vector2( 0, 0 )
9/modulate = Color( 1, 1, 1, 1 )
9/region = Rect2( 72, 0, 8, 8 )
9/tile_mode = 0
9/occluder_offset = Vector2( 0, 0 )
9/navigation_offset = Vector2( 0, 0 )
9/shape_offset = Vector2( 0, 0 )
9/shape_transform = Transform2D( 1, 0, 0, 1, 0, 0 )
9/shape_one_way = false
9/shape_one_way_margin = 0.0
9/shapes = [  ]
9/z_index = 0
10/name = "tileset_dark.png 10"
10/texture = ExtResource( 4 )
10/tex_offset = Vector2( 0, 0 )
10/modulate = Color( 1, 1, 1, 1 )
10/region = Rect2( 80, 0, 8, 8 )
10/tile_mode = 0
10/occluder_offset = Vector2( 0, 0 )
10/navigation_offset = Vector2( 0, 0 )
10/shape_offset = Vector2( 0, 0 )
10/shape_transform = Transform2D( 1, 0, 0, 1, 0, 0 )
10/shape_one_way = false
10/shape_one_way_margin = 0.0
10/shapes = [  ]
10/z_index = 0
11/name = "tileset_dark.png 11"
11/texture = ExtResource( 4 )
11/tex_offset = Vector2( 0, 0 )
11/modulate = Color( 1, 1, 1, 1 )
11/region = Rect2( 88, 0, 8, 8 )
11/tile_mode = 0
11/occluder_offset = Vector2( 0, 0 )
11/navigation_offset = Vector2( 0, 0 )
11/shape_offset = Vector2( 0, 0 )
11/shape_transform = Transform2D( 1, 0, 0, 1, 0, 0 )
11/shape_one_way = false
11/shape_one_way_margin = 0.0
11/shapes = [  ]
11/z_index = 0
12/name = "tileset_dark.png 12"
12/texture = ExtResource( 4 )
12/tex_offset = Vector2( 0, 0 )
12/modulate = Color( 1, 1, 1, 1 )
12/region = Rect2( 0, 0, 8, 8 )
12/tile_mode = 0
12/occluder_offset = Vector2( 0, 0 )
12/navigation_offset = Vector2( 0, 0 )
12/shape_offset = Vector2( 0, 0 )
12/shape_transform = Transform2D( 1, 0, 0, 1, 0, 0 )
12/shape_one_way = false
12/shape_one_way_margin = 0.0
12/shapes = [  ]
12/z_index = 0
13/name = "tileset_dark.png 13"
13/texture = ExtResource( 4 )
13/tex_offset = Vector2( 0, 0 )
13/modulate = Color( 1, 1, 1, 1 )
13/region = Rect2( 96, 0, 8, 8 )
13/tile_mode = 0
13/occluder_offset = Vector2( 0, 0 )
13/navigation_offset = Vector2( 0, 0 )
13/shape_offset = Vector2( 0, 0 )
13/shape_transform = Transform2D( 1, 0, 0, 1, 0, 0 )
13/shape_one_way = false
13/shape_one_way_margin = 0.0
13/shapes = [  ]
13/z_index = 0
14/name = "tileset_light.png 14"
14/texture = ExtResource( 7 )
14/tex_offset = Vector2( 0, 0 )
14/modulate = Color( 1, 1, 1, 1 )
14/region = Rect2( 0, 0, 8, 8 )
14/tile_mode = 0
14/occluder_offset = Vector2( 0, 0 )
14/navigation_offset = Vector2( 0, 0 )
14/shape_offset = Vector2( 0, 0 )
14/shape_transform = Transform2D( 1, 0, 0, 1, 0, 0 )
14/shape_one_way = false
14/shape_one_way_margin = 0.0
14/shapes = [  ]
14/z_index = 0
15/name = "tileset_light.png 15"
15/texture = ExtResource( 7 )
15/tex_offset = Vector2( 0, 0 )
15/modulate = Color( 1, 1, 1, 1 )
15/region = Rect2( 8, 0, 8, 8 )
15/tile_mode = 0
15/occluder_offset = Vector2( 0, 0 )
15/navigation_offset = Vector2( 0, 0 )
15/shape_offset = Vector2( 0, 0 )
15/shape_transform = Transform2D( 1, 0, 0, 1, 0, 0 )
15/shape_one_way = false
15/shape_one_way_margin = 0.0
15/shapes = [  ]
15/z_index = 0
16/name = "tileset_light.png 16"
16/texture = ExtResource( 7 )
16/tex_offset = Vector2( 0, 0 )
16/modulate = Color( 1, 1, 1, 1 )
16/region = Rect2( 16, 0, 8, 8 )
16/tile_mode = 0
16/occluder_offset = Vector2( 0, 0 )
16/navigation_offset = Vector2( 0, 0 )
16/shape_offset = Vector2( 0, 0 )
16/shape_transform = Transform2D( 1, 0, 0, 1, 0, 0 )
16/shape_one_way = false
16/shape_one_way_margin = 0.0
16/shapes = [  ]
16/z_index = 0
17/name = "tileset_light.png 17"
17/texture = ExtResource( 7 )
17/tex_offset = Vector2( 0, 0 )
17/modulate = Color( 1, 1, 1, 1 )
17/region = Rect2( 24, 0, 8, 8 )
17/tile_mode = 0
17/occluder_offset = Vector2( 0, 0 )
17/navigation_offset = Vector2( 0, 0 )
17/shape_offset = Vector2( 0, 0 )
17/shape_transform = Transform2D( 1, 0, 0, 1, 0, 0 )
17/shape_one_way = false
17/shape_one_way_margin = 0.0
17/shapes = [  ]
17/z_index = 0
18/name = "tileset_light.png 18"
18/texture = ExtResource( 7 )
18/tex_offset = Vector2( 0, 0 )
18/modulate = Color( 1, 1, 1, 1 )
18/region = Rect2( 32, 0, 8, 8 )
18/tile_mode = 0
18/occluder_offset = Vector2( 0, 0 )
18/navigation_offset = Vector2( 0, 0 )
18/shape_offset = Vector2( 0, 0 )
18/shape_transform = Transform2D( 1, 0, 0, 1, 0, 0 )
18/shape_one_way = false
18/shape_one_way_margin = 0.0
18/shapes = [  ]
18/z_index = 0
19/name = "tileset_light.png 19"
19/texture = ExtResource( 7 )
19/tex_offset = Vector2( 0, 0 )
19/modulate = Color( 1, 1, 1, 1 )
19/region = Rect2( 40, 0, 8, 8 )
19/tile_mode = 0
19/occluder_offset = Vector2( 0, 0 )
19/navigation_offset = Vector2( 0, 0 )
19/shape_offset = Vector2( 0, 0 )
19/shape_transform = Transform2D( 1, 0, 0, 1, 0, 0 )
19/shape_one_way = false
19/shape_one_way_margin = 0.0
19/shapes = [  ]
19/z_index = 0
20/name = "tileset_light.png 20"
20/texture = ExtResource( 7 )
20/tex_offset = Vector2( 0, 0 )
20/modulate = Color( 1, 1, 1, 1 )
20/region = Rect2( 48, 0, 8, 8 )
20/tile_mode = 0
20/occluder_offset = Vector2( 0, 0 )
20/navigation_offset = Vector2( 0, 0 )
20/shape_offset = Vector2( 0, 0 )
20/shape_transform = Transform2D( 1, 0, 0, 1, 0, 0 )
20/shape_one_way = false
20/shape_one_way_margin = 0.0
20/shapes = [  ]
20/z_index = 0
21/name = "tileset_light.png 21"
21/texture = ExtResource( 7 )
21/tex_offset = Vector2( 0, 0 )
21/modulate = Color( 1, 1, 1, 1 )
21/region = Rect2( 56, 0, 8, 8 )
21/tile_mode = 0
21/occluder_offset = Vector2( 0, 0 )
21/navigation_offset = Vector2( 0, 0 )
21/shape_offset = Vector2( 0, 0 )
21/shape_transform = Transform2D( 1, 0, 0, 1, 0, 0 )
21/shape_one_way = false
21/shape_one_way_margin = 0.0
21/shapes = [  ]
21/z_index = 0
22/name = "tileset_light.png 22"
22/texture = ExtResource( 7 )
22/tex_offset = Vector2( 0, 0 )
22/modulate = Color( 1, 1, 1, 1 )
22/region = Rect2( 64, 0, 8, 8 )
22/tile_mode = 0
22/occluder_offset = Vector2( 0, 0 )
22/navigation_offset = Vector2( 0, 0 )
22/shape_offset = Vector2( 0, 0 )
22/shape_transform = Transform2D( 1, 0, 0, 1, 0, 0 )
22/shape_one_way = false
22/shape_one_way_margin = 0.0
22/shapes = [  ]
22/z_index = 0
23/name = "tileset_light.png 23"
23/texture = ExtResource( 7 )
23/tex_offset = Vector2( 0, 0 )
23/modulate = Color( 1, 1, 1, 1 )
23/region = Rect2( 72, 0, 8, 8 )
23/tile_mode = 0
23/occluder_offset = Vector2( 0, 0 )
23/navigation_offset = Vector2( 0, 0 )
23/shape_offset = Vector2( 0, 0 )
23/shape_transform = Transform2D( 1, 0, 0, 1, 0, 0 )
23/shape_one_way = false
23/shape_one_way_margin = 0.0
23/shapes = [  ]
23/z_index = 0
24/name = "tileset_light.png 24"
24/texture = ExtResource( 7 )
24/tex_offset = Vector2( 0, 0 )
24/modulate = Color( 1, 1, 1, 1 )
24/region = Rect2( 80, 0, 8, 8 )
24/tile_mode = 0
24/occluder_offset = Vector2( 0, 0 )
24/navigation_offset = Vector2( 0, 0 )
24/shape_offset = Vector2( 0, 0 )
24/shape_transform = Transform2D( 1, 0, 0, 1, 0, 0 )
24/shape_one_way = false
24/shape_one_way_margin = 0.0
24/shapes = [  ]
24/z_index = 0
25/name = "tileset_light.png 25"
25/texture = ExtResource( 7 )
25/tex_offset = Vector2( 0, 0 )
25/modulate = Color( 1, 1, 1, 1 )
25/region = Rect2( 88, 0, 8, 8 )
25/tile_mode = 0
25/occluder_offset = Vector2( 0, 0 )
25/navigation_offset = Vector2( 0, 0 )
25/shape_offset = Vector2( 0, 0 )
25/shape_transform = Transform2D( 1, 0, 0, 1, 0, 0 )
25/shape_one_way = false
25/shape_one_way_margin = 0.0
25/shapes = [  ]
25/z_index = 0
26/name = "tileset_light.png 26"
26/texture = ExtResource( 7 )
26/tex_offset = Vector2( 0, 0 )
26/modulate = Color( 1, 1, 1, 1 )
26/region = Rect2( 96, 0, 8, 8 )
26/tile_mode = 0
26/occluder_offset = Vector2( 0, 0 )
26/navigation_offset = Vector2( 0, 0 )
26/shape_offset = Vector2( 0, 0 )
26/shape_transform = Transform2D( 1, 0, 0, 1, 0, 0 )
26/shape_one_way = false
26/shape_one_way_margin = 0.0
26/shapes = [  ]
26/z_index = 0
27/name = "half_tile.png 27"
27/texture = ExtResource( 13 )
27/tex_offset = Vector2( 0, 0 )
27/modulate = Color( 1, 1, 1, 1 )
27/region = Rect2( 0, 0, 8, 8 )
27/tile_mode = 0
27/occluder_offset = Vector2( 0, 0 )
27/navigation_offset = Vector2( 0, 0 )
27/shape_offset = Vector2( 0, 0 )
27/shape_transform = Transform2D( 1, 0, 0, 1, 0, 0 )
27/shape_one_way = false
27/shape_one_way_margin = 0.0
27/shapes = [  ]
27/z_index = 0
28/name = "half_tile.png 28"
28/texture = ExtResource( 13 )
28/tex_offset = Vector2( 0, 0 )
28/modulate = Color( 1, 1, 1, 1 )
28/region = Rect2( 32, 0, 8, 8 )
28/tile_mode = 0
28/occluder_offset = Vector2( 0, 0 )
28/navigation_offset = Vector2( 0, 0 )
28/shape_offset = Vector2( 0, 0 )
28/shape_transform = Transform2D( 1, 0, 0, 1, 0, 0 )
28/shape_one_way = false
28/shape_one_way_margin = 0.0
28/shapes = [  ]
28/z_index = 0

[sub_resource type="ConvexPolygonShape2D" id=2]
points = PoolVector2Array( 8, 4, 8, 8, 0, 8 )

[sub_resource type="ConvexPolygonShape2D" id=3]
points = PoolVector2Array( 0, 4, 8, 0, 8, 8, 0, 8 )

[sub_resource type="ConvexPolygonShape2D" id=4]
points = PoolVector2Array( 8, 8, 0, 8, 8, 0 )

[sub_resource type="ConvexPolygonShape2D" id=5]
points = PoolVector2Array( 0, 0, 8, 0, 0, 8 )

[sub_resource type="OccluderPolygon2D" id=6]
polygon = PoolVector2Array( 0, 0, 8, 0, 8, 8, 0, 8 )

[sub_resource type="ConvexPolygonShape2D" id=7]
points = PoolVector2Array( 0, 0, 8, 0, 8, 8, 0, 8 )

[sub_resource type="TileSet" id=8]
0/name = "slopes.png 0"
0/texture = ExtResource( 1 )
0/tex_offset = Vector2( 0, 0 )
0/modulate = Color( 1, 1, 1, 1 )
0/region = Rect2( 0, 0, 8, 8 )
0/tile_mode = 0
0/occluder_offset = Vector2( 0, 0 )
0/navigation_offset = Vector2( 0, 0 )
0/shape_offset = Vector2( 0, 0 )
0/shape_transform = Transform2D( 1, 0, 0, 1, 0, 0 )
0/shape = SubResource( 2 )
0/shape_one_way = false
0/shape_one_way_margin = 1.0
0/shapes = [ {
"autotile_coord": Vector2( 0, 0 ),
"one_way": false,
"one_way_margin": 1.0,
"shape": SubResource( 2 ),
"shape_transform": Transform2D( 1, 0, 0, 1, 0, 0 )
} ]
0/z_index = 0
1/name = "slopes.png 1"
1/texture = ExtResource( 1 )
1/tex_offset = Vector2( 0, 0 )
1/modulate = Color( 1, 1, 1, 1 )
1/region = Rect2( 8, 0, 8, 8 )
1/tile_mode = 0
1/occluder_offset = Vector2( 0, 0 )
1/navigation_offset = Vector2( 0, 0 )
1/shape_offset = Vector2( 0, 0 )
1/shape_transform = Transform2D( 1, 0, 0, 1, 0, 0 )
1/shape = SubResource( 3 )
1/shape_one_way = false
1/shape_one_way_margin = 1.0
1/shapes = [ {
"autotile_coord": Vector2( 0, 0 ),
"one_way": false,
"one_way_margin": 1.0,
"shape": SubResource( 3 ),
"shape_transform": Transform2D( 1, 0, 0, 1, 0, 0 )
} ]
1/z_index = 0
2/name = "slopes.png 2"
2/texture = ExtResource( 1 )
2/tex_offset = Vector2( 0, 0 )
2/modulate = Color( 1, 1, 1, 1 )
2/region = Rect2( 16, 0, 8, 8 )
2/tile_mode = 0
2/occluder_offset = Vector2( 0, 0 )
2/navigation_offset = Vector2( 0, 0 )
2/shape_offset = Vector2( 0, 0 )
2/shape_transform = Transform2D( 1, 0, 0, 1, 0, 0 )
2/shape = SubResource( 4 )
2/shape_one_way = false
2/shape_one_way_margin = 1.0
2/shapes = [ {
"autotile_coord": Vector2( 0, 0 ),
"one_way": false,
"one_way_margin": 1.0,
"shape": SubResource( 4 ),
"shape_transform": Transform2D( 1, 0, 0, 1, 0, 0 )
} ]
2/z_index = 0
4/name = "slopes.png 4"
4/texture = ExtResource( 1 )
4/tex_offset = Vector2( 0, 0 )
4/modulate = Color( 1, 1, 1, 1 )
4/region = Rect2( 24, 0, 8, 8 )
4/tile_mode = 0
4/occluder_offset = Vector2( 0, 0 )
4/navigation_offset = Vector2( 0, 0 )
4/shape_offset = Vector2( 0, 0 )
4/shape_transform = Transform2D( 1, 0, 0, 1, 0, 0 )
4/shape = SubResource( 5 )
4/shape_one_way = false
4/shape_one_way_margin = 1.0
4/shapes = [ {
"autotile_coord": Vector2( 0, 0 ),
"one_way": false,
"one_way_margin": 1.0,
"shape": SubResource( 5 ),
"shape_transform": Transform2D( 1, 0, 0, 1, 0, 0 )
} ]
4/z_index = 0
5/name = "wall.png 5"
5/texture = ExtResource( 2 )
5/tex_offset = Vector2( 0, 0 )
5/modulate = Color( 1, 1, 1, 1 )
5/region = Rect2( 0, 0, 8, 8 )
5/tile_mode = 0
5/occluder_offset = Vector2( 0, 0 )
5/occluder = SubResource( 6 )
5/navigation_offset = Vector2( 0, 0 )
5/shape_offset = Vector2( 0, 0 )
5/shape_transform = Transform2D( 1, 0, 0, 1, 0, 0 )
5/shape = SubResource( 7 )
5/shape_one_way = false
5/shape_one_way_margin = 1.0
5/shapes = [ {
"autotile_coord": Vector2( 0, 0 ),
"one_way": false,
"one_way_margin": 1.0,
"shape": SubResource( 7 ),
"shape_transform": Transform2D( 1, 0, 0, 1, 0, 0 )
} ]
5/z_index = 0

[sub_resource type="RectangleShape2D" id=12]
extents = Vector2( 176, 96 )

[sub_resource type="RectangleShape2D" id=10]
extents = Vector2( 76, 24 )

[sub_resource type="RectangleShape2D" id=11]
extents = Vector2( 68, 44 )

[sub_resource type="RectangleShape2D" id=13]
extents = Vector2( 120, 60 )

[sub_resource type="RectangleShape2D" id=14]
extents = Vector2( 136, 60 )

[sub_resource type="RectangleShape2D" id=15]
extents = Vector2( 24, 24 )

[node name="level" type="Node2D"]
pause_mode = 2
script = ExtResource( 5 )

[node name="Background" type="TileMap" parent="."]
tile_set = SubResource( 1 )
cell_size = Vector2( 8, 8 )
occluder_light_mask = 2
format = 1
tile_data = PoolIntArray( -655359, 12, 0, -655358, 12, 0, -655357, 12, 0, -655356, 12, 0, -655355, 12, 0, -655354, 12, 0, -589823, 12, 0, -589822, 12, 0, -589821, 12, 0, -589820, 12, 0, -589819, 12, 0, -589818, 12, 0, -589817, 12, 0, -589816, 12, 0, -589815, 12, 0, -589814, 12, 0, -589813, 12, 0, -589812, 12, 0, -589811, 12, 0, -589810, 12, 0, -589809, 12, 0, -589808, 12, 0, -589807, 12, 0, -589806, 5, 0, -589805, 6, 0, -524287, 12, 0, -524286, 12, 0, -524285, 12, 0, -524284, 12, 0, -524283, 12, 0, -524282, 12, 0, -524281, 12, 0, -524280, 12, 0, -524279, 12, 0, -524278, 12, 0, -524277, 12, 0, -524276, 12, 0, -524275, 12, 0, -524274, 12, 0, -524273, 12, 0, -524272, 12, 0, -524271, 12, 0, -524270, 12, 0, -524269, 12, 0, -524268, 12, 0, -524267, 6, 0, -458751, 12, 0, -458750, 12, 0, -458749, 12, 0, -458748, 12, 0, -458747, 12, 0, -458746, 12, 0, -458745, 12, 0, -458744, 12, 0, -458743, 12, 0, -458742, 12, 0, -458741, 12, 0, -458740, 12, 0, -458739, 12, 0, -458738, 12, 0, -458737, 12, 0, -458736, 12, 0, -458735, 12, 0, -458734, 12, 0, -458733, 12, 0, -458732, 12, 0, -458731, 12, 0, -458730, 5, 0, -458729, 6, 0, -393215, 12, 0, -393214, 12, 0, -393213, 12, 0, -393212, 12, 0, -393211, 12, 0, -393210, 12, 0, -393209, 12, 0, -393208, 12, 0, -393207, 12, 0, -393206, 12, 0, -393205, 12, 0, -393204, 12, 0, -393203, 12, 0, -393202, 12, 0, -393201, 12, 0, -393200, 12, 0, -393199, 12, 0, -393198, 12, 0, -393197, 12, 0, -393196, 12, 0, -393195, 12, 0, -393194, 12, 0, -393193, 12, 0, -393192, 12, 0, -393191, 12, 0, -327679, 12, 0, -327678, 12, 0, -327677, 12, 0, -327676, 12, 0, -327675, 12, 0, -327674, 12, 0, -327673, 12, 0, -327672, 12, 0, -327671, 12, 0, -327670, 12, 0, -327669, 12, 0, -327668, 12, 0, -327667, 12, 0, -327666, 12, 0, -327665, 12, 0, -327664, 12, 0, -327663, 12, 0, -327662, 12, 0, -327661, 12, 0, -327660, 12, 0, -327659, 12, 0, -327658, 12, 0, -327657, 12, 0, -327655, 11, 0, -327654, 13, 0, -327653, 12, 0, -327652, 12, 0, -327651, 12, 0, -327636, 536870938, 0, -327633, 536870935, 0, -327632, 536870924, 0, -327631, 536870924, 0, -327630, 536870924, 0, -327629, 536870938, 0, -327624, 536870921, 0, -327623, 536870924, 0, -327622, 536870924, 0, -327621, 536870925, 0, -262143, 12, 0, -262142, 12, 0, -262141, 12, 0, -262140, 12, 0, -262139, 12, 0, -262138, 12, 0, -262137, 12, 0, -262136, 12, 0, -262135, 12, 0, -262134, 12, 0, -262133, 12, 0, -262132, 12, 0, -262131, 12, 0, -262130, 12, 0, -262129, 12, 0, -262128, 12, 0, -262127, 12, 0, -262126, 12, 0, -262125, 12, 0, -262124, 12, 0, -262123, 12, 0, -262122, 12, 0, -262121, 12, 0, -262117, 12, 0, -262116, 12, 0, -262115, 12, 0, -262114, 536870924, 0, -262113, 536870924, 0, -262112, 536870924, 0, -262111, 536870924, 0, -262110, 536870924, 0, -262109, 536870924, 0, -262108, 536870924, 0, -262107, 536870924, 0, -262106, 536870924, 0, -262105, 536870924, 0, -262104, 536870924, 0, -262103, 536870924, 0, -262102, 536870924, 0, -262101, 536870924, 0, -262100, 536870924, 0, -262099, 536870924, 0, -262098, 536870924, 0, -262097, 536870924, 0, -262096, 536870924, 0, -262095, 536870924, 0, -262094, 536870924, 0, -262093, 536870924, 0, -262092, 536870924, 0, -262091, 536870924, 0, -262090, 536870924, 0, -262089, 536870924, 0, -262087, 536870924, 0, -262086, 536870924, 0, -262084, 536870924, 0, -262083, 536870924, 0, -262082, 536870924, 0, -196607, 12, 0, -196606, 12, 0, -196605, 12, 0, -196604, 12, 0, -196603, 12, 0, -196602, 12, 0, -196601, 12, 0, -196600, 12, 0, -196599, 12, 0, -196598, 12, 0, -196597, 12, 0, -196596, 12, 0, -196595, 12, 0, -196594, 12, 0, -196593, 12, 0, -196592, 12, 0, -196591, 12, 0, -196590, 12, 0, -196589, 12, 0, -196588, 12, 0, -196587, 12, 0, -196586, 12, 0, -196585, 12, 0, -196581, 12, 0, -196580, 12, 0, -196579, 12, 0, -196578, 536870924, 0, -196577, 536870924, 0, -196576, 536870924, 0, -196575, 536870924, 0, -196574, 536870924, 0, -196573, 536870924, 0, -196572, 536870924, 0, -196571, 536870924, 0, -196570, 536870924, 0, -196569, 536870924, 0, -196568, 536870924, 0, -196567, 536870924, 0, -196566, 536870924, 0, -196564, 536870924, 0, -196563, 536870924, 0, -196562, 536870924, 0, -196561, 536870924, 0, -196560, 536870924, 0, -196559, 536870924, 0, -196558, 536870924, 0, -196557, 536870924, 0, -196556, 536870924, 0, -196555, 536870924, 0, -196554, 536870924, 0, -196553, 536870924, 0, -196551, 536870924, 0, -196550, 536870924, 0, -196548, 536870924, 0, -196547, 536870924, 0, -196546, 536870924, 0, -131071, 12, 0, -131070, 12, 0, -131069, 12, 0, -131068, 12, 0, -131067, 12, 0, -131066, 12, 0, -131065, 12, 0, -131064, 12, 0, -131063, 12, 0, -131062, 12, 0, -131061, 12, 0, -131060, 12, 0, -131059, 12, 0, -131058, 12, 0, -131057, 12, 0, -131056, 12, 0, -131055, 12, 0, -131054, 12, 0, -131053, 12, 0, -131052, 12, 0, -131051, 12, 0, -131050, 12, 0, -131049, 12, 0, -131047, 7, 0, -131046, 8, 0, -131015, 536870924, 0, -131014, 536870924, 0, -65479, 536870924, 0, -65478, 536870924, 0, 20, -2147483636, 0, 21, -2147483636, 0, 22, -2147483636, 0, 23, -2147483636, 0, 24, -2147483636, 0, 25, -2147483636, 0, 26, -2147483636, 0, 27, -2147483636, 0, 28, -2147483636, 0, 29, -2147483636, 0, 30, -2147483636, 0, 31, -2147483636, 0, 32, -2147483636, 0, 33, -2147483636, 0, 34, -2147483636, 0, 35, -2147483636, 0, 36, -2147483636, 0, 37, -2147483636, 0, 38, -2147483636, 0, 39, -2147483636, 0, 57, 536870924, 0, 58, 536870924, 0, 65556, -2147483636, 0, 65593, 536870924, 0, 65594, 536870924, 0, 131092, -2147483636, 0, 131129, 536870924, 0, 131130, 536870924, 0, 196628, -2147483636, 0, 196665, 536870924, 0, 196666, 536870924, 0, 262164, -2147483636, 0, 262201, 536870924, 0, 262202, 536870924, 0, 327700, -2147483636, 0, 327737, 536870924, 0, 327738, 536870924, 0, 393217, 12, 0, 393218, 12, 0, 393219, 12, 0, 393220, 12, 0, 393221, 12, 0, 393222, 12, 0, 393223, 12, 0, 393224, 12, 0, 393225, 12, 0, 393226, 12, 0, 393227, 12, 0, 393228, 12, 0, 393229, -2147483636, 0, 393230, -2147483636, 0, 393231, -2147483636, 0, 393232, -2147483636, 0, 393233, -2147483636, 0, 393236, -2147483636, 0, 393237, -2147483636, 0, 393238, -2147483636, 0, 393253, -2147483636, 0, 393254, -2147483636, 0, 393255, -2147483636, 0, 393267, 12, 0, 393268, 12, 0, 393269, 12, 0, 393270, 12, 0, 393271, 12, 0, 393272, 12, 0, 393273, 12, 0, 393274, 12, 0, 393275, 12, 0, 393276, 12, 0, 458753, 12, 0, 458754, 12, 0, 458755, 12, 0, 458756, 12, 0, 458757, 12, 0, 458758, 12, 0, 458759, -2147483634, 0, 458760, -2147483634, 0, 458761, -2147483636, 0, 458762, 12, 0, 458763, 12, 0, 458764, 12, 0, 458765, -2147483636, 0, 458766, -2147483636, 0, 458767, -2147483636, 0, 458768, -2147483636, 0, 458769, -2147483636, 0, 458772, -2147483636, 0, 458789, -2147483636, 0, 458790, -2147483636, 0, 458798, -536870901, 0, 524289, 12, 0, 524290, 12, 0, 524291, 12, 0, 524292, 12, 0, 524293, 12, 0, 524294, 12, 0, 524295, -2147483636, 0, 524296, -2147483636, 0, 524297, -2147483636, 0, 524298, 12, 0, 524299, 12, 0, 524300, 12, 0, 524301, -2147483636, 0, 524302, -2147483636, 0, 524303, -2147483636, 0, 524304, -2147483636, 0, 524305, -2147483636, 0, 524308, -2147483636, 0, 589825, 12, 0, 589826, 12, 0, 589827, 12, 0, 589828, 12, 0, 589829, 12, 0, 589830, 12, 0, 589831, 12, 0, 589832, 12, 0, 589833, 12, 0, 589834, 12, 0, 589835, 12, 0, 589836, 12, 0, 589856, 26, 0, 589863, 12, 0, 655381, 12, 0, 655382, 12, 0, 655383, 12, 0, 655384, 12, 0, 655385, 12, 0, 655386, 5, 0, 655399, 12, 0, 655421, 5, 0, 655422, 1610612763, 0, 720917, 12, 0, 720918, 12, 0, 720919, 12, 0, 720920, 14, 0, 720921, 12, 0, 720922, 12, 0, 720935, 13, 0, 720948, 8, 0, 720949, 12, 0, 720950, 5, 0, 720957, 12, 0, 720958, 12, 0, 786453, 12, 0, 786454, 12, 0, 786455, 12, 0, 786456, 12, 0, 786457, 12, 0, 786458, 12, 0, 786459, 1, 0, 786484, 12, 0, 786485, 12, 0, 786486, 12, 0, 786493, 12, 0, 786494, 12, 0, 851995, 12, 0, 851996, 12, 0, 851997, 12, 0, 851998, 5, 0, 851999, 6, 0, 852000, 20, 0, 852007, 6, 0, 852020, 12, 0, 852021, 12, 0, 852022, 12, 0, 852029, 12, 0, 852030, 12, 0, 917524, -2147483636, 0, 917525, -2147483636, 0, 917526, -2147483636, 0, 917527, -2147483636, 0, 917528, -2147483636, 0, 917529, -2147483636, 0, 917530, -2147483636, 0, 917555, 12, 0, 917556, 12, 0, 983060, -2147483636, 0, 983061, -2147483636, 0, 983062, -2147483636, 0, 983063, -2147483636, 0, 983064, -2147483636, 0, 983065, -2147483636, 0, 983066, -2147483636, 0, 983067, -2147483636, 0, 983068, -2147483636, 0, 983069, -2147483636, 0, 983070, -2147483636, 0, 983071, -2147483636, 0, 983072, -2147483636, 0, 983073, -2147483636, 0, 983074, -2147483636, 0, 983075, -2147483636, 0, 983076, -2147483636, 0, 983077, -2147483636, 0, 983078, -2147483636, 0, 983079, -2147483636, 0, 983080, -2147483636, 0, 983090, 12, 0, 983091, 12, 0, 983092, 12, 0, 983093, 9, 0, 983101, 12, 0, 983102, 12, 0, 1048596, -2147483636, 0, 1048597, -2147483636, 0, 1048598, -2147483636, 0, 1048599, -2147483636, 0, 1048600, -2147483636, 0, 1048601, -2147483636, 0, 1048602, -2147483636, 0, 1048603, -2147483636, 0, 1048604, -2147483636, 0, 1048605, -2147483636, 0, 1048606, -2147483636, 0, 1048607, -2147483636, 0, 1048608, -2147483636, 0, 1048609, -2147483636, 0, 1048610, -2147483636, 0, 1048611, -2147483636, 0, 1048612, -2147483636, 0, 1048613, -2147483636, 0, 1048614, -2147483636, 0, 1048615, -2147483636, 0, 1048616, -2147483636, 0, 1048617, -2147483636, 0, 1048618, -2147483636, 0, 1048626, 12, 0, 1048627, 12, 0, 1048628, 12, 0, 1048637, 12, 0, 1048638, 12, 0, 1114132, -2147483636, 0, 1114133, -2147483636, 0, 1114134, -2147483636, 0, 1114135, -2147483636, 0, 1114136, -2147483636, 0, 1114137, -2147483636, 0, 1114138, -2147483636, 0, 1114139, -2147483636, 0, 1114140, -2147483636, 0, 1114141, -2147483636, 0, 1114142, -2147483636, 0, 1114143, -2147483636, 0, 1114144, -2147483636, 0, 1114145, -2147483636, 0, 1114146, -2147483636, 0, 1114147, -2147483636, 0, 1114148, -2147483636, 0, 1114149, -2147483636, 0, 1114150, -2147483636, 0, 1114151, -2147483636, 0, 1114152, -2147483636, 0, 1114153, -2147483636, 0, 1114154, -2147483636, 0, 1114155, -2147483636, 0, 1114156, -2147483636, 0, 1114162, 12, 0, 1114163, 12, 0, 1114164, 12, 0, 1114173, 12, 0, 1114174, 12, 0, 1179668, -2147483636, 0, 1179669, -2147483636, 0, 1179670, -2147483636, 0, 1179671, -2147483636, 0, 1179672, -2147483636, 0, 1179673, -2147483636, 0, 1179674, -2147483636, 0, 1179675, -2147483636, 0, 1179676, -2147483636, 0, 1179677, -2147483636, 0, 1179678, -2147483636, 0, 1179679, -2147483636, 0, 1179680, -2147483636, 0, 1179681, -2147483636, 0, 1179682, -2147483636, 0, 1179683, -2147483636, 0, 1179684, -2147483636, 0, 1179685, -2147483636, 0, 1179686, -2147483636, 0, 1179687, -2147483636, 0, 1179688, -2147483636, 0, 1179689, -2147483636, 0, 1179690, -2147483636, 0, 1179691, -2147483636, 0, 1179692, -2147483636, 0, 1179693, -2147483636, 0, 1179694, -2147483636, 0, 1179699, 13, 0, 1179700, 12, 0, 1245197, 12, 0, 1245198, 12, 0, 1245199, 12, 0, 1245204, -2147483636, 0, 1245205, -2147483636, 0, 1245206, -2147483636, 0, 1245207, -2147483636, 0, 1245208, -2147483636, 0, 1245209, -2147483636, 0, 1245210, -2147483636, 0, 1245211, -2147483636, 0, 1245212, -2147483636, 0, 1245213, -2147483636, 0, 1245214, -2147483636, 0, 1245215, -2147483636, 0, 1245216, -2147483636, 0, 1245217, -2147483636, 0, 1245218, -2147483636, 0, 1245219, -2147483636, 0, 1245220, -2147483636, 0, 1245221, -2147483636, 0, 1245222, -2147483636, 0, 1245223, -2147483636, 0, 1245224, -2147483636, 0, 1245225, -2147483636, 0, 1245226, -2147483636, 0, 1245227, -2147483636, 0, 1245228, -2147483636, 0, 1245229, -2147483636, 0, 1245230, -2147483636, 0, 1245231, 26, 0, 1245236, 12, 0, 1245237, 12, 0, 1245238, 12, 0, 1245245, 12, 0, 1245246, 12, 0, 1310731, 12, 0, 1310732, 12, 0, 1310733, 12, 0, 1310734, 12, 0, 1310735, 12, 0, 1310740, -2147483636, 0, 1310741, -2147483636, 0, 1310742, -2147483636, 0, 1310743, -2147483636, 0, 1310744, -2147483636, 0, 1310745, -2147483636, 0, 1310746, -2147483636, 0, 1310747, -2147483636, 0, 1310748, -2147483636, 0, 1310749, -2147483636, 0, 1310750, -2147483636, 0, 1310751, -2147483636, 0, 1310752, -2147483636, 0, 1310753, -2147483636, 0, 1310754, -2147483636, 0, 1310755, -2147483636, 0, 1310756, -2147483636, 0, 1310757, -2147483636, 0, 1310758, -2147483636, 0, 1310759, -2147483636, 0, 1310760, -2147483636, 0, 1310761, -2147483636, 0, 1310762, -2147483636, 0, 1310763, -2147483636, 0, 1310764, -2147483636, 0, 1310765, -2147483636, 0, 1310766, -2147483636, 0, 1310769, 12, 0, 1310770, 12, 0, 1310771, 12, 0, 1310772, 12, 0, 1310773, 12, 0, 1310774, 12, 0, 1310781, 12, 0, 1310782, 12, 0, 1376266, 12, 0, 1376267, 12, 0, 1376268, 12, 0, 1376269, 12, 0, 1376270, 12, 0, 1376271, 12, 0, 1376276, -2147483636, 0, 1376277, -2147483636, 0, 1376278, -2147483636, 0, 1376279, -2147483636, 0, 1376280, -2147483636, 0, 1376281, -2147483636, 0, 1376282, -2147483636, 0, 1376283, -2147483636, 0, 1376284, -2147483636, 0, 1376285, -2147483636, 0, 1376286, -2147483636, 0, 1376287, -2147483636, 0, 1376288, -2147483636, 0, 1376289, -2147483636, 0, 1376290, -2147483636, 0, 1376291, -2147483636, 0, 1376292, -2147483636, 0, 1376293, -2147483636, 0, 1376294, -2147483636, 0, 1376295, -2147483636, 0, 1376296, -2147483636, 0, 1376297, -2147483636, 0, 1376298, -2147483636, 0, 1376299, -2147483636, 0, 1376300, -2147483636, 0, 1376301, -2147483636, 0, 1376302, -2147483636, 0, 1376305, 12, 0, 1376306, 12, 0, 1376307, 12, 0, 1376308, 12, 0, 1376309, 9, 0, 1376317, 12, 0, 1376318, 12, 0, 1441802, 12, 0, 1441803, 12, 0, 1441804, 14, 0, 1441812, -2147483636, 0, 1441813, -2147483636, 0, 1441814, -2147483636, 0, 1441815, -2147483636, 0, 1441816, -2147483636, 0, 1441817, -2147483636, 0, 1441818, -2147483636, 0, 1441819, -2147483636, 0, 1441820, -2147483636, 0, 1441821, -2147483636, 0, 1441822, -2147483636, 0, 1441823, -2147483636, 0, 1441824, -2147483636, 0, 1441825, -2147483636, 0, 1441826, -2147483636, 0, 1441827, -2147483636, 0, 1441828, -2147483636, 0, 1441829, -2147483636, 0, 1441830, -2147483636, 0, 1441831, -2147483636, 0, 1441832, -2147483636, 0, 1441833, -2147483636, 0, 1441834, -2147483636, 0, 1441835, -2147483636, 0, 1441836, -2147483636, 0, 1441837, -2147483636, 0, 1441838, -2147483636, 0, 1441839, 19, 0, 1441841, 12, 0, 1441842, 12, 0, 1441843, 12, 0, 1441844, 12, 0, 1441851, 7, 0, 1441852, 8, 0, 1441853, 12, 0, 1441854, 12, 0, 1507338, 12, 0, 1507339, 12, 0, 1507340, 12, 0, 1507348, -2147483636, 0, 1507349, -2147483636, 0, 1507350, -2147483636, 0, 1507351, -2147483636, 0, 1507352, -2147483636, 0, 1507353, -2147483636, 0, 1507354, -2147483636, 0, 1507355, -2147483636, 0, 1507356, -2147483636, 0, 1507357, -2147483636, 0, 1507358, -2147483636, 0, 1507359, -2147483636, 0, 1507360, -2147483636, 0, 1507361, -2147483636, 0, 1507362, -2147483636, 0, 1507363, -2147483636, 0, 1507364, -2147483636, 0, 1507365, -2147483636, 0, 1507366, -2147483636, 0, 1507367, -2147483636, 0, 1507368, -2147483636, 0, 1507369, -2147483636, 0, 1507370, -2147483636, 0, 1507371, -2147483636, 0, 1507372, -2147483636, 0, 1507373, -2147483636, 0, 1507374, -2147483636, 0, 1572871, -536870900, 0, 1572872, 12, 0, 1572873, -536870900, 0, 1572874, 14, 0, 1572875, 12, 0, 1572876, 12, 0, 1638401, 12, 0, 1638402, 12, 0, 1638403, 12, 0, 1638404, 12, 0, 1638405, 12, 0, 1638406, 12, 0, 1638407, -536870902, 0, 1638408, 27, 0, 1638409, -536870906, 0, 1638410, 12, 0, 1638411, 12, 0, 1638412, 12, 0, 1703937, 12, 0, 1703938, 12, 0, 1703939, 12, 0, 1703940, 12, 0, 1703941, 12, 0, 1703942, 12, 0, 1703943, -536870903, 0, 1703944, 1073741851, 0, 1703945, -1073741815, 0, 1703946, 12, 0, 1703947, 12, 0, 1703948, 14, 0, 1769473, 12, 0, 1769474, 12, 0, 1769475, 12, 0, 1769476, 12, 0, 1769477, 12, 0, 1769478, 12, 0, 1769479, -1073741812, 0, 1769480, 12, 0, 1769481, -1073741812, 0, 1769482, 12, 0, 1769483, 12, 0 )

[node name="TileMap" type="TileMap" parent="."]
tile_set = SubResource( 8 )
cell_size = Vector2( 8, 8 )
cell_custom_transform = Transform2D( 0, 0, 0, 0, 0, 0 )
collision_use_kinematic = true
occluder_light_mask = 2
format = 1
tile_data = PoolIntArray( -720896, 5, 0, -720895, 5, 0, -720894, 5, 0, -720893, 5, 0, -720892, 5, 0, -720891, 5, 0, -720890, 5, 0, -720889, 536870913, 0, -720888, 536870912, 0, -655360, 5, 0, -655354, 1073741824, 0, -655353, 5, 0, -655352, 5, 0, -655351, 5, 0, -655350, 5, 0, -655349, 5, 0, -655348, 5, 0, -655347, 5, 0, -655346, 5, 0, -655345, 5, 0, -655344, 5, 0, -655343, 5, 0, -655342, 5, 0, -655341, 536870913, 0, -655340, 536870912, 0, -589824, 5, 0, -589806, 1073741824, 0, -589805, 1073741825, 0, -589804, 5, 0, -589803, 536870913, 0, -589802, 536870912, 0, -524288, 5, 0, -524268, 1073741824, 0, -524267, 1073741825, 0, -524266, 5, 0, -524265, 536870913, 0, -524264, 536870912, 0, -458752, 5, 0, -458731, 536870913, 0, -458730, 1073741824, 0, -458729, 1073741825, 0, -458728, 5, 0, -458727, 536870913, 0, -458726, 536870912, 0, -393216, 5, 0, -393215, 5, 0, -393214, 5, 0, -393209, 5, 0, -393208, 5, 0, -393198, 5, 0, -393197, 5, 0, -393196, 5, 0, -393195, 5, 0, -393192, 1073741824, 0, -393191, 1073741825, 0, -393190, 5, 0, -393189, -2147483643, 0, -393188, -2147483643, 0, -393187, 5, 0, -393185, 5, 0, -393184, 5, 0, -393183, 5, 0, -393182, 5, 0, -393181, 5, 0, -393180, 5, 0, -393179, 5, 0, -393178, 5, 0, -393177, 5, 0, -393176, 5, 0, -393175, 5, 0, -393174, 5, 0, -393173, 5, 0, -393172, 5, 0, -393171, 5, 0, -393170, 5, 0, -393169, 5, 0, -393168, 5, 0, -393167, 5, 0, -393166, 5, 0, -393165, 5, 0, -393164, 5, 0, -393163, 5, 0, -393162, 5, 0, -393161, 5, 0, -393160, 5, 0, -393159, 5, 0, -393158, 5, 0, -393157, 5, 0, -393156, 5, 0, -393155, 5, 0, -393154, 5, 0, -393153, 5, 0, -327680, 5, 0, -327651, 5, 0, -327637, 5, 0, -327617, 5, 0, -262144, 5, 0, -262129, 5, 0, -262128, 5, 0, -262115, 5, 0, -262101, 1610612737, 0, -262081, 5, 0, -196608, 5, 0, -196579, 5, 0, -196565, 1, 0, -196545, 5, 0, -131072, 5, 0, -131047, 0, 0, -131046, 1, 0, -131045, 5, 0, -131044, 5, 0, -131043, 5, 0, -131029, 5, 0, -131025, 1, 0, -131024, 5, 0, -131023, 5, 0, -131022, 5, 0, -131021, 536870913, 0, -131016, 536870912, 0, -131013, 536870912, 0, -131009, 5, 0, -65536, 5, 0, -65535, 5, 0, -65534, 5, 0, -65533, 5, 0, -65532, 5, 0, -65531, 5, 0, -65530, 5, 0, -65529, 5, 0, -65528, 5, 0, -65527, 5, 0, -65526, 5, 0, -65525, 5, 0, -65524, 5, 0, -65523, 5, 0, -65522, 5, 0, -65521, 5, 0, -65520, 5, 0, -65519, 5, 0, -65518, 5, 0, -65517, 5, 0, -65516, 5, 0, -65515, 5, 0, -65514, 5, 0, -65513, 5, 0, -65512, 5, 0, -65511, 5, 0, -65510, 5, 0, -65509, 5, 0, -65508, 5, 0, -65507, 5, 0, -65506, 5, 0, -65505, 5, 0, -65504, 5, 0, -65503, 5, 0, -65502, 5, 0, -65501, 5, 0, -65500, 5, 0, -65499, 5, 0, -65498, 5, 0, -65497, 5, 0, -65496, 5, 0, -65493, 5, 0, -65492, 5, 0, -65491, 5, 0, -65490, 5, 0, -65489, 5, 0, -65488, 5, 0, -65487, 5, 0, -65486, 5, 0, -65485, 5, 0, -65484, 5, 0, -65483, 5, 0, -65482, 5, 0, -65481, 5, 0, -65480, 5, 0, -65477, 5, 0, -65476, 5, 0, -65475, 5, 0, -65474, 5, 0, -65473, 5, 0, 20, 5, 0, 21, -2147483643, 0, 22, -2147483643, 0, 23, -2147483643, 0, 24, -2147483643, 0, 25, -2147483643, 0, 26, -2147483643, 0, 27, -2147483643, 0, 28, -2147483643, 0, 29, -2147483643, 0, 30, -2147483643, 0, 31, -2147483643, 0, 32, -2147483643, 0, 33, -2147483643, 0, 34, -2147483643, 0, 35, -2147483643, 0, 36, -2147483643, 0, 37, -2147483643, 0, 38, -2147483643, 0, 39, -2147483643, 0, 40, 5, 0, 43, 5, 0, 44, 5, 0, 45, 5, 0, 46, 5, 0, 47, 5, 0, 48, 5, 0, 49, 5, 0, 50, 5, 0, 51, 5, 0, 52, 5, 0, 53, 5, 0, 54, 5, 0, 55, 5, 0, 56, 5, 0, 59, 5, 0, 60, 5, 0, 61, 5, 0, 62, 5, 0, 63, 5, 0, 65556, 5, 0, 65592, 1610612737, 0, 65595, 1610612737, 0, 65599, 5, 0, 65600, 5, 0, 65601, 5, 0, 65602, 5, 0, 65603, 5, 0, 65604, 5, 0, 65605, 5, 0, 131092, 5, 0, 131141, 5, 0, 196628, 5, 0, 196677, 5, 0, 262164, 5, 0, 262213, 5, 0, 327680, 5, 0, 327681, 5, 0, 327682, 5, 0, 327683, 5, 0, 327684, 5, 0, 327685, 5, 0, 327686, 5, 0, 327687, 5, 0, 327688, 5, 0, 327689, 5, 0, 327690, 5, 0, 327691, 5, 0, 327692, 5, 0, 327693, 5, 0, 327694, -2147483643, 0, 327695, -2147483643, 0, 327696, -2147483643, 0, 327697, -2147483643, 0, 327698, -2147483643, 0, 327700, 5, 0, 327749, 5, 0, 393216, 5, 0, 393234, -2147483643, 0, 393236, 5, 0, 393237, 5, 0, 393238, 5, 0, 393243, 5, 0, 393248, 5, 0, 393253, 5, 0, 393254, 5, 0, 393255, 5, 0, 393256, 5, 0, 393257, 5, 0, 393258, 5, 0, 393259, 5, 0, 393260, 5, 0, 393261, 5, 0, 393262, 5, 0, 393263, 5, 0, 393264, 5, 0, 393265, 5, 0, 393266, 5, 0, 393267, 5, 0, 393268, 1610612737, 0, 393269, 1610612736, 0, 393272, 1073741825, 0, 393273, 5, 0, 393274, 5, 0, 393275, 4, 0, 393277, 5, 0, 393278, 5, 0, 393279, 5, 0, 393280, 5, 0, 393281, 5, 0, 393282, 5, 0, 393283, 5, 0, 393284, 5, 0, 393285, 5, 0, 458752, 5, 0, 458770, 5, 0, 458772, 5, 0, 458779, 5, 0, 458784, 5, 0, 458789, 5, 0, 458790, 5, 0, 458791, 5, 0, 458792, 5, 0, 458793, 5, 0, 458794, 5, 0, 458799, 5, 0, 458813, 1073741829, 0, 458814, 1073741829, 0, 458815, 5, 0, 524288, 5, 0, 524306, 5, 0, 524308, 5, 0, 524313, 5, 0, 524314, 5, 0, 524315, 5, 0, 524316, 5, 0, 524317, 5, 0, 524318, 5, 0, 524319, 5, 0, 524320, 5, 0, 524321, 5, 0, 524322, 5, 0, 524323, 5, 0, 524324, 5, 0, 524325, 5, 0, 524326, 5, 0, 524327, 5, 0, 524328, 5, 0, 524329, 5, 0, 524330, 5, 0, 524335, 5, 0, 524349, 1073741825, 0, 524350, 1073741829, 0, 524351, 5, 0, 589824, 5, 0, 589834, 0, 0, 589835, 1, 0, 589836, 5, 0, 589837, 5, 0, 589838, -2147483643, 0, 589839, -2147483643, 0, 589840, -2147483643, 0, 589841, -2147483643, 0, 589842, -2147483643, 0, 589844, 5, 0, 589845, 5, 0, 589846, 5, 0, 589847, 5, 0, 589848, 5, 0, 589849, 5, 0, 589850, -536870912, 0, 589871, 1073741825, 0, 589887, 5, 0, 655360, 5, 0, 655361, 5, 0, 655362, 5, 0, 655363, 5, 0, 655364, 5, 0, 655365, 5, 0, 655366, 5, 0, 655367, 5, 0, 655368, 5, 0, 655369, 5, 0, 655370, 5, 0, 655371, 5, 0, 655372, 5, 0, 655380, 5, 0, 655423, 5, 0, 720916, 5, 0, 720959, 5, 0, 786452, 5, 0, 786495, 5, 0, 851988, 5, 0, 851989, 5, 0, 851990, 5, 0, 851991, 5, 0, 851992, 5, 0, 851993, 5, 0, 851994, 5, 0, 851995, 536870913, 0, 851996, 536870912, 0, 852031, 5, 0, 917524, 5, 0, 917527, 1073741825, 0, 917530, 1073741824, 0, 917531, 5, 0, 917532, 5, 0, 917533, 5, 0, 917534, 5, 0, 917535, 5, 0, 917536, 5, 0, 917537, 5, 0, 917538, 5, 0, 917539, 5, 0, 917540, 5, 0, 917541, 5, 0, 917542, 5, 0, 917543, 5, 0, 917544, 536870913, 0, 917545, 536870912, 0, 917551, 1073741825, 0, 917552, 5, 0, 917553, 5, 0, 917554, 5, 0, 917555, 5, 0, 917556, 5, 0, 917557, 5, 0, 917558, 5, 0, 917559, 5, 0, 917560, 5, 0, 917561, 5, 0, 917562, 5, 0, 917563, 5, 0, 917564, 5, 0, 917565, 5, 0, 917566, 5, 0, 917567, 5, 0, 983060, 5, 0, 983071, 1610612737, 0, 983077, 1073741825, 0, 983079, 1073741824, 0, 983080, 1073741825, 0, 983081, 5, 0, 983082, 536870913, 0, 983083, 536870912, 0, 983103, 5, 0, 1048596, 5, 0, 1048599, 536870912, 0, 1048617, 1073741824, 0, 1048618, 1073741825, 0, 1048619, 5, 0, 1048620, 536870913, 0, 1048621, 536870912, 0, 1048639, 5, 0, 1114132, 5, 0, 1114133, 5, 0, 1114134, 5, 0, 1114135, 5, 0, 1114149, 536870913, 0, 1114154, 536870913, 0, 1114155, 1073741824, 0, 1114156, 1073741825, 0, 1114157, 5, 0, 1114158, 536870913, 0, 1114159, 536870912, 0, 1114175, 5, 0, 1179660, 1, 0, 1179661, 5, 0, 1179662, 5, 0, 1179663, 5, 0, 1179664, 536870913, 0, 1179668, 5, 0, 1179674, 5, 0, 1179675, 5, 0, 1179676, 5, 0, 1179679, 1, 0, 1179685, 5, 0, 1179686, 5, 0, 1179687, 5, 0, 1179688, 5, 0, 1179689, 5, 0, 1179690, 5, 0, 1179693, 1073741824, 0, 1179694, 1073741825, 0, 1179695, 1073741829, 0, 1179696, -2147483643, 0, 1179697, -2147483643, 0, 1179700, 5, 0, 1179701, 5, 0, 1179702, 5, 0, 1179707, 536870917, 0, 1179708, 536870917, 0, 1179709, 536870917, 0, 1179710, 536870917, 0, 1179711, 5, 0, 1245196, 5, 0, 1245200, 5, 0, 1245204, 5, 0, 1245211, 1610612737, 0, 1245215, 5, 0, 1245216, 5, 0, 1245217, 5, 0, 1245218, 5, 0, 1245219, 5, 0, 1245220, 5, 0, 1245221, 5, 0, 1245247, 5, 0, 1310729, 1610612741, 0, 1310730, 1610612741, 0, 1310731, 1610612737, 0, 1310732, 1610612736, 0, 1310736, 5, 0, 1310740, 5, 0, 1310783, 5, 0, 1376265, 5, 0, 1376272, 5, 0, 1376276, 5, 0, 1376284, 1073741824, 0, 1376285, 1610612736, 0, 1376319, 5, 0, 1441801, 5, 0, 1441804, 1, 0, 1441805, 5, 0, 1441806, 5, 0, 1441807, 5, 0, 1441808, 5, 0, 1441812, 5, 0, 1441813, 5, 0, 1441814, 5, 0, 1441815, 5, 0, 1441816, 5, 0, 1441817, 536870913, 0, 1441818, 536870912, 0, 1441828, 0, 0, 1441829, 1, 0, 1441830, 5, 0, 1441831, 536870914, 0, 1441855, 5, 0, 1507334, 5, 0, 1507335, 5, 0, 1507336, 5, 0, 1507337, 5, 0, 1507341, 5, 0, 1507348, 5, 0, 1507349, 5, 0, 1507350, 5, 0, 1507351, 5, 0, 1507352, 5, 0, 1507353, 5, 0, 1507354, 5, 0, 1507355, 5, 0, 1507356, 5, 0, 1507357, 5, 0, 1507358, 5, 0, 1507359, 5, 0, 1507360, 5, 0, 1507361, 5, 0, 1507362, 5, 0, 1507363, 5, 0, 1507364, 5, 0, 1507365, 5, 0, 1507366, 5, 0, 1507367, 5, 0, 1507368, 5, 0, 1507369, 5, 0, 1507370, 5, 0, 1507371, 5, 0, 1507372, 5, 0, 1507373, 5, 0, 1507374, 5, 0, 1507375, 5, 0, 1507376, 5, 0, 1507377, 5, 0, 1507378, 5, 0, 1507379, 5, 0, 1507380, 5, 0, 1507381, 5, 0, 1507382, 5, 0, 1507383, 5, 0, 1507384, 5, 0, 1507385, 5, 0, 1507386, 5, 0, 1507387, 5, 0, 1507388, 5, 0, 1507389, 5, 0, 1507390, 5, 0, 1507391, 5, 0, 1572864, 5, 0, 1572865, 5, 0, 1572866, 5, 0, 1572867, 5, 0, 1572868, 5, 0, 1572869, 5, 0, 1572870, 5, 0, 1572871, 4, 0, 1572873, 536870916, 0, 1572874, 536870913, 0, 1572877, 5, 0, 1638400, 5, 0, 1638413, 5, 0, 1703936, 5, 0, 1703948, 1, 0, 1703949, 5, 0, 1769472, 5, 0, 1769479, 1, 0, 1769480, 5, 0, 1769481, 536870913, 0, 1769482, 536870912, 0, 1769484, 5, 0, 1835008, 5, 0, 1835009, 5, 0, 1835010, 5, 0, 1835011, 5, 0, 1835012, 5, 0, 1835013, 5, 0, 1835014, 5, 0, 1835015, 5, 0, 1835016, 5, 0, 1835017, 5, 0, 1835018, 5, 0, 1835019, 5, 0, 1835020, 5, 0 )

[node name="PlayerStartingPoint" type="Position2D" parent="."]
position = Vector2( 84, 76 )

[node name="DOORS" type="YSort" parent="."]

[node name="dual_door" parent="DOORS" instance=ExtResource( 3 )]
position = Vector2( 56, 72 )

[node name="door1" parent="DOORS/dual_door" index="0"]
position = Vector2( -12, 0 )

[node name="door2" parent="DOORS/dual_door" index="1"]
position = Vector2( 124, 24 )

[node name="dual_door2" parent="DOORS" instance=ExtResource( 3 )]
position = Vector2( 419, 169 )

[node name="door1" parent="DOORS/dual_door2" index="0"]
position = Vector2( 81, 7 )

[node name="door2" parent="DOORS/dual_door2" index="1"]
position = Vector2( 81, -65 )

[node name="linked_door" parent="DOORS" instance=ExtResource( 11 )]
position = Vector2( 116, 172 )
destination_door = NodePath("../linked_door2")

[node name="linked_door2" parent="DOORS" instance=ExtResource( 11 )]
position = Vector2( 428, 108 )
destination_door = NodePath("../linked_door")

[node name="linked_door_trick" parent="DOORS" instance=ExtResource( 11 )]
position = Vector2( 348, 180 )
destination_door = NodePath(".")

[node name="linked_door_trick2" parent="DOORS" instance=ExtResource( 11 )]
position = Vector2( 276, 148 )
destination_door = NodePath("../linked_door_trick")

[node name="linked_door_trick3" parent="DOORS" instance=ExtResource( 11 )]
position = Vector2( 172, 132 )
destination_door = NodePath("../linked_door_trick")

[node name="linked_door_trick7" parent="DOORS" instance=ExtResource( 11 )]
position = Vector2( 220, 140 )
destination_door = NodePath("../linked_door_trick")

[node name="linked_door_trick4" parent="DOORS" instance=ExtResource( 11 )]
position = Vector2( 188, 172 )
destination_door = NodePath("../linked_door_trick")

[node name="linked_door_trick_true" parent="DOORS" instance=ExtResource( 11 )]
position = Vector2( 324, 140 )
destination_door = NodePath("../linked_door_trick_finish")

[node name="linked_door_trick_finish" parent="DOORS" instance=ExtResource( 11 )]
position = Vector2( 156, -52 )
destination_door = NodePath("../linked_door_trick_true")

[node name="linked_door_trick6" parent="DOORS" instance=ExtResource( 11 )]
position = Vector2( 276, 180 )
destination_door = NodePath("../linked_door_trick")

[node name="linked_door3" parent="DOORS" instance=ExtResource( 11 )]
position = Vector2( 228, -20 )
destination_door = NodePath("../linked_door4")

[node name="linked_door4" parent="DOORS" instance=ExtResource( 11 )]
position = Vector2( 396, -20 )
destination_door = NodePath("../linked_door3")

[node name="CAMERAS" type="YSort" parent="."]

[node name="follow_camera_zone" parent="CAMERAS" instance=ExtResource( 8 )]
visible = false
position = Vector2( 336, 96 )

[node name="CollisionShape2D" parent="CAMERAS/follow_camera_zone/Area2D" index="0"]
shape = SubResource( 12 )

[node name="Camera2D" parent="CAMERAS/follow_camera_zone" index="1"]
limit_left = 160
limit_top = 0
limit_right = 512
limit_bottom = 192
editor_draw_limits = true
editor_draw_drag_margin = true

[node name="fixed_camera_zone" parent="CAMERAS" instance=ExtResource( 6 )]
visible = false
position = Vector2( 76, 64 )

[node name="CollisionShape2D" parent="CAMERAS/fixed_camera_zone/Area2D" index="0"]
shape = SubResource( 10 )

[node name="fixed_camera_zone2" parent="CAMERAS" instance=ExtResource( 6 )]
visible = false
position = Vector2( 68, 188 )

[node name="CollisionShape2D" parent="CAMERAS/fixed_camera_zone2/Area2D" index="0"]
shape = SubResource( 11 )

[node name="follow_camera_zone2" parent="CAMERAS" instance=ExtResource( 8 )]
visible = false
position = Vector2( 120, -60 )
fixed_to_area2d = true

[node name="CollisionShape2D" parent="CAMERAS/follow_camera_zone2/Area2D" index="0"]
shape = SubResource( 13 )

[node name="Camera2D" parent="CAMERAS/follow_camera_zone2" index="1"]
limit_left = 0
limit_top = -136
limit_right = 248
limit_bottom = 0

[node name="follow_camera_zone3" parent="CAMERAS" instance=ExtResource( 8 )]
visible = false
position = Vector2( 376, -60 )
fixed_to_area2d = true

[node name="CollisionShape2D" parent="CAMERAS/follow_camera_zone3/Area2D" index="0"]
shape = SubResource( 14 )

[node name="fixed_camera_zone3" parent="CAMERAS" instance=ExtResource( 6 )]
visible = false
position = Vector2( 536, 32 )

[node name="CollisionShape2D" parent="CAMERAS/fixed_camera_zone3/Area2D" index="0"]
shape = SubResource( 15 )

[node name="Camera2D" parent="CAMERAS/fixed_camera_zone3" index="1"]
position = Vector2( 56, -2 )

[node name="ITEMS" type="YSort" parent="."]

[node name="item_pickaxe" parent="ITEMS" instance=ExtResource( 12 )]
position = Vector2( 68, 208 )

[node name="item_pickaxe2" parent="ITEMS" instance=ExtResource( 12 )]
position = Vector2( 76, 60 )

[node name="Sprite" parent="ITEMS/item_pickaxe2" index="0"]
visible = false

[node name="CPUParticles2D" parent="ITEMS/item_pickaxe2" index="2"]
visible = false

[node name="Label" parent="ITEMS/item_pickaxe2/action_label/Control" index="0"]
visible = false

[node name="dialog_event_listener" parent="ITEMS/item_pickaxe2" index="4"]
dialog_text = "P I C K A X E"

[node name="text_sign" parent="ITEMS" instance=ExtResource( 15 )]
position = Vector2( 129, 68 )
dialog_text = "Devlog 0: I hate this game, i can't...
...
... Code a weapon or something.
It's Godot engine's fault!
I don't care, surely i will get an idea for this.
What about some lore or game story?
What about giving a name to the player?
(No, i won't give you a chance to name MY player)
Keep Playing..."

[node name="text_sign2" parent="ITEMS" instance=ExtResource( 15 )]
position = Vector2( 20, 220 )
dialog_text = "Nice, congrats on your first \"weapon\"
...
Even if it's a melee one, at least you have something.
...
Alright, go back to the beginning of this level."

[node name="text_sign3" parent="ITEMS" instance=ExtResource( 15 )]
position = Vector2( 20, 76 )
dialog_text = "Devlog 1: Seems like i managed to create a pickaxe.
Creating destroyable tiles is easy.
Creating a pickaxe took me one day only.
The hard part is programming the interaction.
Keep exploring."

[node name="text_sign4" parent="ITEMS" instance=ExtResource( 15 )]
position = Vector2( 372, 180 )
dialog_text = "Welcome to this maze.
Objective: Find the correct door."

[node name="text_sign5" parent="ITEMS" instance=ExtResource( 15 )]
position = Vector2( 124, -36 )
sign_sprite_index = 1
dialog_text = "Zone: The zero cave.
You are inside miner's room.
Take the elevator to the right."

[node name="text_sign6" parent="ITEMS" instance=ExtResource( 15 )]
position = Vector2( 492, 44 )
sign_sprite_index = 1
dialog_text = "This seems like a door.
It also seems locked.
Look for switches."

[node name="text_sign8" parent="ITEMS" instance=ExtResource( 15 )]
position = Vector2( 540, 44 )
sign_sprite_index = 1
dialog_text = "Welcome to the end.
Come back later, this is all i can show you for now."

[node name="text_sign7" parent="ITEMS" instance=ExtResource( 15 )]
position = Vector2( 204, 60 )
sign_sprite_index = 1
dialog_text = "Stage door switch.
Interact to toggle door."

[node name="LOGIC" type="YSort" parent="."]

[node name="door_animated" parent="LOGIC" instance=ExtResource( 10 )]
position = Vector2( 504, 16 )

[node name="action_switch" parent="LOGIC" instance=ExtResource( 14 )]
position = Vector2( 177, 65 )
target_node = NodePath("../door_animated")
toggle_text = "CANNOT DETERMINE DOOR STATUS, CHECK YOURSELF"

[node name="destroyable" parent="." instance=ExtResource( 9 )]
show_collision = false
tile_data = PoolIntArray( -655357, 0, 0, -655356, 0, 0, -655355, 0, 0, -589821, 0, 0, -589820, 0, 0, -589819, 0, 0, -589809, 0, 0, -589808, 0, 0, -589807, 0, 0, -589806, 0, 0, -524285, 0, 0, -524284, 0, 0, -524283, 0, 0, -524273, 0, 0, -524272, 0, 0, -458749, 0, 0, -458748, 0, 0, -458747, 0, 0, -393213, 0, 0, -393212, 0, 0, -393211, 0, 0, -393207, 0, 0, -393206, 0, 0, -393205, 0, 0, -327671, 0, 0, -327670, 0, 0, -327669, 0, 0, -327663, 0, 0, -327662, 0, 0, -327659, 0, 0, -327658, 0, 0, -327657, 0, 0, -327624, 0, 0, -327623, 0, 0, -327622, 0, 0, -327621, 0, 0, -262135, 0, 0, -262134, 0, 0, -262133, 0, 0, -262127, 0, 0, -262126, 0, 0, -262123, 0, 0, -262122, 0, 0, -262121, 0, 0, -262088, 0, 0, -262087, 0, 0, -262086, 0, 0, -262085, 0, 0, -196599, 0, 0, -196598, 0, 0, -196597, 0, 0, -196593, 0, 0, -196592, 0, 0, -196591, 0, 0, -196590, 0, 0, -196587, 0, 0, -196586, 0, 0, -196585, 0, 0, -196552, 0, 0, -196551, 0, 0, -196550, 0, 0, -196549, 0, 0, -131063, 0, 0, -131062, 0, 0, -131061, 0, 0, -131057, 0, 0, -131056, 0, 0, -131055, 0, 0, -131054, 0, 0, -131051, 0, 0, -131050, 0, 0, -131049, 0, 0, -131016, 0, 0, -131015, 0, 0, -131014, 0, 0, -131013, 0, 0, 65579, 0, 0, 65580, 0, 0, 65583, 0, 0, 65584, 0, 0, 131115, 0, 0, 131116, 0, 0, 131119, 0, 0, 131120, 0, 0, 196651, 0, 0, 196652, 0, 0, 196655, 0, 0, 196656, 0, 0, 262187, 0, 0, 262188, 0, 0, 262191, 0, 0, 262192, 0, 0, 327723, 0, 0, 327724, 0, 0, 327727, 0, 0, 327728, 0, 0, 393217, 0, 0, 393218, 0, 0, 393219, 0, 0, 393220, 0, 0, 393239, 0, 0, 393240, 0, 0, 393241, 0, 0, 393242, 0, 0, 393244, 0, 0, 393245, 0, 0, 393246, 0, 0, 393247, 0, 0, 393249, 0, 0, 393250, 0, 0, 393251, 0, 0, 393252, 0, 0, 458753, 0, 0, 458754, 0, 0, 458755, 0, 0, 458756, 0, 0, 458773, 0, 0, 458774, 0, 0, 458775, 0, 0, 458776, 0, 0, 458777, 0, 0, 458778, 0, 0, 458780, 0, 0, 458781, 0, 0, 458782, 0, 0, 458783, 0, 0, 458785, 0, 0, 458786, 0, 0, 458787, 0, 0, 458788, 0, 0, 524289, 0, 0, 524290, 0, 0, 524291, 0, 0, 524292, 0, 0, 524309, 0, 0, 524310, 0, 0, 524311, 0, 0, 524312, 0, 0, 589825, 0, 0, 589826, 0, 0, 589827, 0, 0, 589828, 0, 0, 720943, 0, 0, 720944, 0, 0, 720945, 0, 0, 720946, 0, 0, 720947, 0, 0, 786479, 0, 0, 786480, 0, 0, 786481, 0, 0, 786482, 0, 0, 786483, 0, 0, 852015, 0, 0, 852016, 0, 0, 852017, 0, 0, 852018, 0, 0, 852019, 0, 0, 917525, 0, 0, 917526, 0, 0, 917527, 0, 0, 917530, 0, 0, 983061, 0, 0, 983062, 0, 0, 983063, 0, 0, 983066, 0, 0, 983067, 0, 0, 983068, 0, 0, 983073, 0, 0, 983074, 0, 0, 983075, 0, 0, 983079, 0, 0, 983080, 0, 0, 983092, 0, 0, 983093, 0, 0, 983094, 0, 0, 983099, 0, 0, 983100, 0, 0, 1048597, 0, 0, 1048598, 0, 0, 1048599, 0, 0, 1048602, 0, 0, 1048603, 0, 0, 1048604, 0, 0, 1048609, 0, 0, 1048610, 0, 0, 1048611, 0, 0, 1048615, 0, 0, 1048616, 0, 0, 1048617, 0, 0, 1048628, 0, 0, 1048629, 0, 0, 1048630, 0, 0, 1048635, 0, 0, 1048636, 0, 0, 1114138, 0, 0, 1114139, 0, 0, 1114140, 0, 0, 1114145, 0, 0, 1114146, 0, 0, 1114147, 0, 0, 1114151, 0, 0, 1114152, 0, 0, 1114153, 0, 0, 1114164, 0, 0, 1114165, 0, 0, 1114166, 0, 0, 1114171, 0, 0, 1114172, 0, 0, 1179674, 0, 0, 1179675, 0, 0, 1179676, 0, 0, 1179681, 0, 0, 1179682, 0, 0, 1179683, 0, 0, 1179703, 0, 0, 1179704, 0, 0, 1179705, 0, 0, 1179706, 0, 0, 1245206, 0, 0, 1245207, 0, 0, 1245208, 0, 0, 1245210, 0, 0, 1245211, 0, 0, 1245212, 0, 0, 1245223, 0, 0, 1245224, 0, 0, 1245225, 0, 0, 1245231, 0, 0, 1245232, 0, 0, 1245233, 0, 0, 1245238, 0, 0, 1245239, 0, 0, 1245240, 0, 0, 1245241, 0, 0, 1245242, 0, 0, 1245243, 0, 0, 1310742, 0, 0, 1310743, 0, 0, 1310744, 0, 0, 1310746, 0, 0, 1310747, 0, 0, 1310748, 0, 0, 1310753, 0, 0, 1310754, 0, 0, 1310755, 0, 0, 1310759, 0, 0, 1310760, 0, 0, 1310761, 0, 0, 1310767, 0, 0, 1310768, 0, 0, 1310769, 0, 0, 1310770, 0, 0, 1376278, 0, 0, 1376279, 0, 0, 1376280, 0, 0, 1376282, 0, 0, 1376283, 0, 0, 1376284, 0, 0, 1376289, 0, 0, 1376290, 0, 0, 1376291, 0, 0, 1376295, 0, 0, 1376296, 0, 0, 1376297, 0, 0, 1376303, 0, 0, 1376304, 0, 0, 1376305, 0, 0, 1376306, 0, 0, 1441818, 0, 0, 1441819, 0, 0, 1441820, 0, 0, 1441825, 0, 0, 1441826, 0, 0, 1441827, 0, 0, 1441831, 0, 0, 1441832, 0, 0, 1441833, 0, 0, 1441839, 0, 0, 1441840, 0, 0, 1441841, 0, 0, 1441842, 0, 0, 1441843, 0, 0, 1441844, 0, 0, 1638401, 0, 0, 1638402, 0, 0, 1638403, 0, 0, 1638404, 0, 0, 1638405, 0, 0, 1638406, 0, 0, 1703937, 0, 0, 1703938, 0, 0, 1703939, 0, 0, 1703940, 0, 0, 1703941, 0, 0, 1703942, 0, 0, 1769473, 0, 0, 1769474, 0, 0, 1769475, 0, 0, 1769476, 0, 0, 1769477, 0, 0, 1769478, 0, 0 )

[connection signal="door_action" from="DOORS/dual_door" to="." method="_on_dual_door_door_action"]
[connection signal="door_action" from="DOORS/dual_door2" to="." method="_on_dual_door2_door_action"]

[editable path="DOORS/dual_door"]
[editable path="DOORS/dual_door/door1"]
[editable path="DOORS/dual_door/door2"]
[editable path="DOORS/dual_door2"]
[editable path="DOORS/dual_door2/door1"]
[editable path="DOORS/dual_door2/door2"]
[editable path="CAMERAS/follow_camera_zone"]
[editable path="CAMERAS/fixed_camera_zone"]
[editable path="CAMERAS/fixed_camera_zone2"]
[editable path="CAMERAS/follow_camera_zone2"]
[editable path="CAMERAS/follow_camera_zone3"]
[editable path="CAMERAS/fixed_camera_zone3"]
[editable path="ITEMS/item_pickaxe2"]
[editable path="ITEMS/item_pickaxe2/action_label"]
