[gd_scene load_steps=3 format=2]

[ext_resource path="res://Sectors/Stage 2/tools/dual_door.gd" type="Script" id=3]
[ext_resource path="res://Sectors/Stage 2/tools/door_teleport.tscn" type="PackedScene" id=4]

[node name="dual_door" type="Node2D"]
script = ExtResource( 3 )

[node name="door1" parent="." instance=ExtResource( 4 )]
position = Vector2( -8, 0 )

[node name="ActionHint" parent="door1" index="0"]
visible = false
position = Vector2( -6, -18 )

[node name="door2" parent="." instance=ExtResource( 4 )]
position = Vector2( 8, 0 )

[node name="ActionHint" parent="door2" index="0"]
visible = false
position = Vector2( -6, -18 )

[editable path="door1"]
[editable path="door2"]
