[gd_scene load_steps=5 format=2]

[ext_resource path="res://Sectors/Stage 2/tools/action_label.tscn" type="PackedScene" id=1]
[ext_resource path="res://Graphics/door_square.png" type="Texture" id=2]
[ext_resource path="res://Sectors/Stage 2/tools/linked_door.gd" type="Script" id=3]

[sub_resource type="Animation" id=1]
resource_name = "action"
tracks/0/type = "value"
tracks/0/path = NodePath("Sprite:frame")
tracks/0/interp = 1
tracks/0/loop_wrap = true
tracks/0/imported = false
tracks/0/enabled = true
tracks/0/keys = {
"times": PoolRealArray( 0, 1 ),
"transitions": PoolRealArray( 1, 1 ),
"update": 1,
"values": [ 1, 0 ]
}

[node name="linked_door" type="Node2D"]
script = ExtResource( 3 )

[node name="Sprite" type="Sprite" parent="."]
texture = ExtResource( 2 )
hframes = 2

[node name="action_label" parent="." instance=ExtResource( 1 )]
position = Vector2( 0, -8 )

[node name="AnimationPlayer" type="AnimationPlayer" parent="."]
anims/action = SubResource( 1 )

[connection signal="action_label" from="action_label" to="." method="_on_action_label_action_label"]
