[gd_scene load_steps=5 format=2]

[ext_resource path="res://ActionHint.tscn" type="PackedScene" id=1]
[ext_resource path="res://Graphics/switch.png" type="Texture" id=2]
[ext_resource path="res://Tools/Switch.vs" type="Script" id=3]

[sub_resource type="RectangleShape2D" id=1]
extents = Vector2( 8, 5 )

[node name="Switch" type="Node2D"]
script = ExtResource( 3 )

[node name="Sprite" type="Sprite" parent="."]
texture = ExtResource( 2 )
centered = false
hframes = 2

[node name="ActionHint" parent="." instance=ExtResource( 1 )]
visible = false
position = Vector2( -3, -15 )

[node name="Area2D" type="Area2D" parent="."]
position = Vector2( 3, 4 )
collision_layer = 4
collision_mask = 4

[node name="CollisionShape2D" type="CollisionShape2D" parent="Area2D"]
shape = SubResource( 1 )
[connection signal="action" from="ActionHint" to="." method="_on_ActionHint_action"]
[connection signal="area_entered" from="Area2D" to="." method="_on_Area2D_area_entered"]
[connection signal="area_exited" from="Area2D" to="." method="_on_Area2D_area_exited"]
