[gd_scene load_steps=5 format=2]

[ext_resource path="res://Graphics/door_tall.png" type="Texture" id=1]
[ext_resource path="res://ActionHint.tscn" type="PackedScene" id=2]
[ext_resource path="res://Sectors/Stage 2/objects/door.gd" type="Script" id=3]

[sub_resource type="RectangleShape2D" id=1]
extents = Vector2( 4, 5 )

[node name="door" type="Node2D"]
script = ExtResource( 3 )

[node name="Sprite" type="Sprite" parent="."]
texture = ExtResource( 1 )
hframes = 2

[node name="ActionHint" parent="." instance=ExtResource( 2 )]
visible = false
position = Vector2( -6, -17 )

[node name="Area2D" type="Area2D" parent="."]
collision_layer = 4
collision_mask = 4

[node name="CollisionShape2D" type="CollisionShape2D" parent="Area2D"]
position = Vector2( 0, 3 )
shape = SubResource( 1 )

[connection signal="area_entered" from="Area2D" to="." method="_on_Area2D_area_entered"]
[connection signal="area_exited" from="Area2D" to="." method="_on_Area2D_area_exited"]
